sims/test.vcd
$date
    Mar 12, 2025  18:28:10
$end
$version
    TOOL:	xmsim(64)	22.09-s001
$end
$timescale
    1 ps
$end

$scope module main $end

$scope module tjtag $end
$var wire      1 !    tdi  $end
$var wire      1 "    tms  $end
$var wire      1 #    tck  $end
$var wire      1 $    tdo  $end
$var wire      1 %    lock  $end
$var wire      1 &    clk  $end
$var wire      1 '    rst  $end
$var reg      32 (    m_axil_awaddr [31:0] $end
$var reg       3 )    m_axil_awprot [2:0] $end
$var reg       1 *    m_axil_awvalid $end
$var wire      1 +    m_axil_awready  $end
$var reg      32 ,    m_axil_wdata [31:0] $end
$var reg       4 -    m_axil_wstrb [3:0] $end
$var reg       1 .    m_axil_wvalid $end
$var wire      1 /    m_axil_wready  $end
$var wire      2 0    m_axil_bresp [1:0] $end
$var wire      1 1    m_axil_bvalid  $end
$var reg       1 2    m_axil_bready $end
$var reg      32 3    m_axil_araddr [31:0] $end
$var reg       3 4    m_axil_arprot [2:0] $end
$var reg       1 5    m_axil_arvalid $end
$var wire      1 6    m_axil_arready  $end
$var wire     32 7    m_axil_rdata [31:0] $end
$var wire      2 8    m_axil_rresp [1:0] $end
$var wire      1 9    m_axil_rvalid  $end
$var reg       1 :    m_axil_rready $end
$var parameter 32 ;    IDCODE $end
$var parameter 32 <    MEM_ADDR $end
$var parameter 32 =    MEM_DATA $end
$var parameter 32 >    EXEC_READ $end
$var parameter 32 ?    EXEC_WRITE $end
$var parameter 32 @    TLR $end
$var parameter 32 A    RTI $end
$var parameter 32 B    SELECT_DR $end
$var parameter 32 C    CAPTURE_DR $end
$var parameter 32 D    SHIFT_DR $end
$var parameter 32 E    EXIT1_DR $end
$var parameter 32 F    PAUSE_DR $end
$var parameter 32 G    EXIT2_DR $end
$var parameter 32 H    UPDATE_DR $end
$var parameter 32 I    SELECT_IR $end
$var parameter 32 J    CAPTURE_IR $end
$var parameter 32 K    SHIFT_IR $end
$var parameter 32 L    EXIT1_IR $end
$var parameter 32 M    PAUSE_IR $end
$var parameter 32 N    EXIT2_IR $end
$var parameter 32 O    UPDATE_IR $end
$var reg      32 P    mem_addr [31:0] $end
$var reg      32 Q    mem_addr_n [31:0] $end
$var reg      32 R    data_reg [31:0] $end
$var reg      32 S    data_reg_n [31:0] $end
$var reg      32 T    mem_data [31:0] $end
$var reg      32 U    mem_data_n [31:0] $end
$var reg       6 V    instr_reg [5:0] $end
$var reg       6 W    instr_reg_n [5:0] $end
$var reg       7 X    tap_state [6:0] $end
$var reg       7 Y    tap_state_n [6:0] $end
$var reg      32 Z    IDCODE_VAL [31:0] $end
$var reg       1 [    mem_read $end
$var reg       1 \    mem_read_n $end
$var reg       1 ]    mem_write $end
$var reg       1 ^    mem_write_n $end
$var reg      32 _    readback_data [31:0] $end
$var reg      32 `    readback_data_n [31:0] $end
$var reg      32 a    m_axil_awaddr_n [31:0] $end
$var reg       3 b    m_axil_awprot_n [2:0] $end
$var reg       1 c    m_axil_awvalid_n $end
$var reg      32 d    m_axil_wdata_n [31:0] $end
$var reg       4 e    m_axil_wstrb_n [3:0] $end
$var reg       1 f    m_axil_wvalid_n $end
$var reg       1 g    m_axil_bready_n $end
$var reg      32 h    m_axil_araddr_n [31:0] $end
$var reg       3 i    m_axil_arprot_n [2:0] $end
$var reg       1 j    m_axil_arvalid_n $end
$var reg       1 k    m_axil_rready_n $end
$var reg       4 l    axil_fsm [3:0] $end
$var reg       4 m    axil_fsm_n [3:0] $end
$var parameter 32 n    AXIL_IDLE $end
$var parameter 32 o    AXIL_READ_0 $end
$var parameter 32 p    AXIL_READ_1 $end
$var parameter 32 q    AXIL_WRITE_0 $end
$var parameter 32 r    AXIL_WRITE_1 $end
$upscope $end

$upscope $end

$enddefinitions $end
$dumpvars
b100 r
b11 q
b10 p
b1 o
b0 n
b1111 O
b1110 N
b1101 M
b1100 L
b1011 K
b1010 J
b1001 I
b1000 H
b111 G
b110 F
b101 E
b100 D
b11 C
b10 B
b1 A
b0 @
b100 ?
b11 >
b10 =
b1 <
b0 ;
0!
0"
0#
x$
0%
0&
0'
b0 (
b0 )
0*
0+
b0 ,
b0 -
0.
0/
b0 0
01
12
b0 3
b0 4
05
06
b0 7
b0 8
09
0:
bx P
bx Q
bx R
bx S
bx T
bx U
b0 V
b0 W
bx X
b0 Y
b1001110010100110101011101000011 Z
0[
0\
0]
0^
b0 _
b0 `
b0 a
b0 b
0c
b0 d
b0 e
0f
1g
b0 h
b0 i
0j
0k
b0 l
b0 m
$end
#6250
1&
#10000
1'
#12500
0&
#18750
1&
b0 X
b0 P
b0 T
b0 R
b11011101111011000000110111101101 _
b0 Q
b0 S
b0 U
b1 Y
b11011101111011000000110111101101 `
0$
#20000
1"
0'
b0 Y
#25000
0&
#31250
1&
#37500
0&
#43750
1&
#50000
0&
#56250
1&
#62500
0&
#68750
1&
#70000
1#
#75000
0&
#81250
1&
#87500
0&
#93750
1&
#100000
0&
#106250
1&
#112500
0&
#118750
1&
#120000
0#
#125000
0&
#131250
1&
#137500
0&
#143750
1&
#150000
0&
#156250
1&
#162500
0&
#168750
1&
#170000
1#
#175000
0&
#181250
1&
#187500
0&
#193750
1&
#200000
0&
#206250
1&
#212500
0&
#218750
1&
#220000
0#
#225000
0&
#231250
1&
#237500
0&
#243750
1&
#250000
0&
#256250
1&
#262500
0&
#268750
1&
#270000
1#
#275000
0&
#281250
1&
#287500
0&
#293750
1&
#300000
0&
#306250
1&
#312500
0&
#318750
1&
#320000
0#
#325000
0&
#331250
1&
#337500
0&
#343750
1&
#350000
0&
#356250
1&
#362500
0&
#368750
1&
#370000
1#
#375000
0&
#381250
1&
#387500
0&
#393750
1&
#400000
0&
#406250
1&
#412500
0&
#418750
1&
#420000
0#
#425000
0&
#431250
1&
#437500
0&
#443750
1&
#450000
0&
#456250
1&
#462500
0&
#468750
1&
#470000
1#
#475000
0&
#481250
1&
#487500
0&
#493750
1&
#500000
0&
#506250
1&
#512500
0&
#518750
1&
#520000
0"
0#
b1 Y
#525000
0&
#531250
1&
#537500
0&
#543750
1&
#550000
0&
#556250
1&
#562500
0&
#568750
1&
#570000
1#
b1 X
#575000
0&
#581250
1&
#587500
0&
#593750
1&
#600000
0&
#606250
1&
#612500
0&
#618750
1&
#620000
1"
0#
b10 Y
#625000
0&
#631250
1&
#637500
0&
#643750
1&
#650000
0&
#656250
1&
#662500
0&
#668750
1&
#670000
1#
b10 X
b1001 Y
#675000
0&
#681250
1&
#687500
0&
#693750
1&
#700000
0&
#706250
1&
#712500
0&
#718750
1&
#720000
0#
#725000
0&
#731250
1&
#737500
0&
#743750
1&
#750000
0&
#756250
1&
#762500
0&
#768750
1&
#770000
1#
b1001 X
b0 Y
#775000
0&
#781250
1&
#787500
0&
#793750
1&
#800000
0&
#806250
1&
#812500
0&
#818750
1&
#820000
0"
0#
b1001 Y
b1010 Y
#825000
0&
#831250
1&
#837500
0&
#843750
1&
#850000
0&
#856250
1&
#862500
0&
#868750
1&
#870000
1#
b1010 X
b1011 Y
#875000
0&
#881250
1&
#887500
0&
#893750
1&
#900000
0&
#906250
1&
#912500
0&
#918750
1&
#920000
0#
#925000
0&
#931250
1&
#937500
0&
#943750
1&
#950000
0&
#956250
1&
#962500
0&
#968750
1&
#970000
1#
b1011 X
#975000
0&
#981250
1&
#987500
0&
#993750
1&
#1000000
0&
#1006250
1&
#1012500
0&
#1018750
1&
#1020000
0#
#1025000
0&
#1031250
1&
#1037500
0&
#1043750
1&
#1050000
0&
#1056250
1&
#1062500
0&
#1068750
1&
#1070000
1#
#1075000
0&
#1081250
1&
#1087500
0&
#1093750
1&
#1100000
0&
#1106250
1&
#1112500
0&
#1118750
1&
#1120000
0#
#1125000
0&
#1131250
1&
#1137500
0&
#1143750
1&
#1150000
0&
#1156250
1&
#1162500
0&
#1168750
1&
#1170000
1#
#1175000
0&
#1181250
1&
#1187500
0&
#1193750
1&
#1200000
0&
#1206250
1&
#1212500
0&
#1218750
1&
#1220000
0#
#1225000
0&
#1231250
1&
#1237500
0&
#1243750
1&
#1250000
0&
#1256250
1&
#1262500
0&
#1268750
1&
#1270000
1#
#1275000
0&
#1281250
1&
#1287500
0&
#1293750
1&
#1300000
0&
#1306250
1&
#1312500
0&
#1318750
1&
#1320000
0#
#1325000
0&
#1331250
1&
#1337500
0&
#1343750
1&
#1350000
0&
#1356250
1&
#1362500
0&
#1368750
1&
#1370000
1#
#1375000
0&
#1381250
1&
#1387500
0&
#1393750
1&
#1400000
0&
#1406250
1&
#1412500
0&
#1418750
1&
#1420000
0#
#1425000
0&
#1431250
1&
#1437500
0&
#1443750
1&
#1450000
0&
#1456250
1&
#1462500
0&
#1468750
1&
#1470000
1#
#1475000
0&
#1481250
1&
#1487500
0&
#1493750
1&
#1500000
0&
#1506250
1&
#1512500
0&
#1518750
1&
#1520000
0#
#1525000
0&
#1531250
1&
#1537500
0&
#1543750
1&
#1550000
0&
#1556250
1&
#1562500
0&
#1568750
1&
#1570000
1#
#1575000
0&
#1581250
1&
#1587500
0&
#1593750
1&
#1600000
0&
#1606250
1&
#1612500
0&
#1618750
1&
#1620000
1"
0#
b1100 Y
#1625000
0&
#1631250
1&
#1637500
0&
#1643750
1&
#1650000
0&
#1656250
1&
#1662500
0&
#1668750
1&
#1670000
1#
b1100 X
b1111 Y
#1675000
0&
#1681250
1&
#1687500
0&
#1693750
1&
#1700000
0&
#1706250
1&
#1712500
0&
#1718750
1&
#1720000
0#
#1725000
0&
#1731250
1&
#1737500
0&
#1743750
1&
#1750000
0&
#1756250
1&
#1762500
0&
#1768750
1&
#1770000
1#
b1111 X
b10 Y
#1775000
0&
#1781250
1&
#1787500
0&
#1793750
1&
#1800000
0&
#1806250
1&
#1812500
0&
#1818750
1&
#1820000
0"
0#
b1111 Y
b1 Y
#1825000
0&
#1831250
1&
#1837500
0&
#1843750
1&
#1850000
0&
#1856250
1&
#1862500
0&
#1868750
1&
#1870000
1#
b1 X
#1875000
0&
#1881250
1&
#1887500
0&
#1893750
1&
#1900000
0&
#1906250
1&
#1912500
0&
#1918750
1&
#1920000
0#
#1925000
0&
#1931250
1&
#1937500
0&
#1943750
1&
#1950000
0&
#1956250
1&
#1962500
0&
#1968750
1&
#1970000
1#
#1975000
0&
#1981250
1&
#1987500
0&
#1993750
1&
#2000000
0&
#2006250
1&
#2012500
0&
#2018750
1&
#2020000
1"
0#
b10 Y
#2025000
0&
#2031250
1&
#2037500
0&
#2043750
1&
#2050000
0&
#2056250
1&
#2062500
0&
#2068750
1&
#2070000
1#
b10 X
b1001 Y
#2075000
0&
#2081250
1&
#2087500
0&
#2093750
1&
#2100000
0&
#2106250
1&
#2112500
0&
#2118750
1&
#2120000
0"
0#
b10 Y
b11 Y
#2125000
0&
#2131250
1&
#2137500
0&
#2143750
1&
#2150000
0&
#2156250
1&
#2162500
0&
#2168750
1&
#2170000
1#
b11 X
b1001110010100110101011101000011 S
b100 Y
#2175000
0&
#2181250
1&
#2187500
0&
#2193750
1&
#2200000
0&
#2206250
1&
#2212500
0&
#2218750
1&
#2220000
0#
#2225000
0&
#2231250
1&
#2237500
0&
#2243750
1&
#2250000
0&
#2256250
1&
#2262500
0&
#2268750
1&
#2270000
1#
b100 X
b1001110010100110101011101000011 R
b100111001010011010101110100001 S
1$
#2275000
0&
#2281250
1&
#2287500
0&
#2293750
1&
#2300000
0&
#2306250
1&
#2312500
0&
#2318750
1&
#2320000
0#
#2325000
0&
#2331250
1&
#2337500
0&
#2343750
1&
#2350000
0&
#2356250
1&
#2362500
0&
#2368750
1&
#2370000
1#
b100111001010011010101110100001 R
b10011100101001101010111010000 S
#2375000
0&
#2381250
1&
#2387500
0&
#2393750
1&
#2400000
0&
#2406250
1&
#2412500
0&
#2418750
1&
#2420000
0#
#2425000
0&
#2431250
1&
#2437500
0&
#2443750
1&
#2450000
0&
#2456250
1&
#2462500
0&
#2468750
1&
#2470000
1#
b10011100101001101010111010000 R
b1001110010100110101011101000 S
0$
#2475000
0&
#2481250
1&
#2487500
0&
#2493750
1&
#2500000
0&
#2506250
1&
#2512500
0&
#2518750
1&
#2520000
0#
#2525000
0&
#2531250
1&
#2537500
0&
#2543750
1&
#2550000
0&
#2556250
1&
#2562500
0&
#2568750
1&
#2570000
1#
b1001110010100110101011101000 R
b100111001010011010101110100 S
#2575000
0&
#2581250
1&
#2587500
0&
#2593750
1&
#2600000
0&
#2606250
1&
#2612500
0&
#2618750
1&
#2620000
0#
#2625000
0&
#2631250
1&
#2637500
0&
#2643750
1&
#2650000
0&
#2656250
1&
#2662500
0&
#2668750
1&
#2670000
1#
b100111001010011010101110100 R
b10011100101001101010111010 S
#2675000
0&
#2681250
1&
#2687500
0&
#2693750
1&
#2700000
0&
#2706250
1&
#2712500
0&
#2718750
1&
#2720000
0#
#2725000
0&
#2731250
1&
#2737500
0&
#2743750
1&
#2750000
0&
#2756250
1&
#2762500
0&
#2768750
1&
#2770000
1#
b10011100101001101010111010 R
b1001110010100110101011101 S
#2775000
0&
#2781250
1&
#2787500
0&
#2793750
1&
#2800000
0&
#2806250
1&
#2812500
0&
#2818750
1&
#2820000
0#
#2825000
0&
#2831250
1&
#2837500
0&
#2843750
1&
#2850000
0&
#2856250
1&
#2862500
0&
#2868750
1&
#2870000
1#
b1001110010100110101011101 R
b100111001010011010101110 S
1$
#2875000
0&
#2881250
1&
#2887500
0&
#2893750
1&
#2900000
0&
#2906250
1&
#2912500
0&
#2918750
1&
#2920000
0#
#2925000
0&
#2931250
1&
#2937500
0&
#2943750
1&
#2950000
0&
#2956250
1&
#2962500
0&
#2968750
1&
#2970000
1#
b100111001010011010101110 R
b10011100101001101010111 S
0$
#2975000
0&
#2981250
1&
#2987500
0&
#2993750
1&
#3000000
0&
#3006250
1&
#3012500
0&
#3018750
1&
#3020000
0#
#3025000
0&
#3031250
1&
#3037500
0&
#3043750
1&
#3050000
0&
#3056250
1&
#3062500
0&
#3068750
1&
#3070000
1#
b10011100101001101010111 R
b1001110010100110101011 S
1$
#3075000
0&
#3081250
1&
#3087500
0&
#3093750
1&
#3100000
0&
#3106250
1&
#3112500
0&
#3118750
1&
#3120000
0#
#3125000
0&
#3131250
1&
#3137500
0&
#3143750
1&
#3150000
0&
#3156250
1&
#3162500
0&
#3168750
1&
#3170000
1#
b1001110010100110101011 R
b100111001010011010101 S
#3175000
0&
#3181250
1&
#3187500
0&
#3193750
1&
#3200000
0&
#3206250
1&
#3212500
0&
#3218750
1&
#3220000
0#
#3225000
0&
#3231250
1&
#3237500
0&
#3243750
1&
#3250000
0&
#3256250
1&
#3262500
0&
#3268750
1&
#3270000
1#
b100111001010011010101 R
b10011100101001101010 S
#3275000
0&
#3281250
1&
#3287500
0&
#3293750
1&
#3300000
0&
#3306250
1&
#3312500
0&
#3318750
1&
#3320000
0#
#3325000
0&
#3331250
1&
#3337500
0&
#3343750
1&
#3350000
0&
#3356250
1&
#3362500
0&
#3368750
1&
#3370000
1#
b10011100101001101010 R
b1001110010100110101 S
0$
#3375000
0&
#3381250
1&
#3387500
0&
#3393750
1&
#3400000
0&
#3406250
1&
#3412500
0&
#3418750
1&
#3420000
0#
#3425000
0&
#3431250
1&
#3437500
0&
#3443750
1&
#3450000
0&
#3456250
1&
#3462500
0&
#3468750
1&
#3470000
1#
b1001110010100110101 R
b100111001010011010 S
1$
#3475000
0&
#3481250
1&
#3487500
0&
#3493750
1&
#3500000
0&
#3506250
1&
#3512500
0&
#3518750
1&
#3520000
0#
#3525000
0&
#3531250
1&
#3537500
0&
#3543750
1&
#3550000
0&
#3556250
1&
#3562500
0&
#3568750
1&
#3570000
1#
b100111001010011010 R
b10011100101001101 S
0$
#3575000
0&
#3581250
1&
#3587500
0&
#3593750
1&
#3600000
0&
#3606250
1&
#3612500
0&
#3618750
1&
#3620000
0#
#3625000
0&
#3631250
1&
#3637500
0&
#3643750
1&
#3650000
0&
#3656250
1&
#3662500
0&
#3668750
1&
#3670000
1#
b10011100101001101 R
b1001110010100110 S
1$
#3675000
0&
#3681250
1&
#3687500
0&
#3693750
1&
#3700000
0&
#3706250
1&
#3712500
0&
#3718750
1&
#3720000
0#
#3725000
0&
#3731250
1&
#3737500
0&
#3743750
1&
#3750000
0&
#3756250
1&
#3762500
0&
#3768750
1&
#3770000
1#
b1001110010100110 R
b100111001010011 S
0$
#3775000
0&
#3781250
1&
#3787500
0&
#3793750
1&
#3800000
0&
#3806250
1&
#3812500
0&
#3818750
1&
#3820000
0#
#3825000
0&
#3831250
1&
#3837500
0&
#3843750
1&
#3850000
0&
#3856250
1&
#3862500
0&
#3868750
1&
#3870000
1#
b100111001010011 R
b10011100101001 S
1$
#3875000
0&
#3881250
1&
#3887500
0&
#3893750
1&
#3900000
0&
#3906250
1&
#3912500
0&
#3918750
1&
#3920000
0#
#3925000
0&
#3931250
1&
#3937500
0&
#3943750
1&
#3950000
0&
#3956250
1&
#3962500
0&
#3968750
1&
#3970000
1#
b10011100101001 R
b1001110010100 S
#3975000
0&
#3981250
1&
#3987500
0&
#3993750
1&
#4000000
0&
#4006250
1&
#4012500
0&
#4018750
1&
#4020000
0#
#4025000
0&
#4031250
1&
#4037500
0&
#4043750
1&
#4050000
0&
#4056250
1&
#4062500
0&
#4068750
1&
#4070000
1#
b1001110010100 R
b100111001010 S
0$
#4075000
0&
#4081250
1&
#4087500
0&
#4093750
1&
#4100000
0&
#4106250
1&
#4112500
0&
#4118750
1&
#4120000
0#
#4125000
0&
#4131250
1&
#4137500
0&
#4143750
1&
#4150000
0&
#4156250
1&
#4162500
0&
#4168750
1&
#4170000
1#
b100111001010 R
b10011100101 S
#4175000
0&
#4181250
1&
#4187500
0&
#4193750
1&
#4200000
0&
#4206250
1&
#4212500
0&
#4218750
1&
#4220000
0#
#4225000
0&
#4231250
1&
#4237500
0&
#4243750
1&
#4250000
0&
#4256250
1&
#4262500
0&
#4268750
1&
#4270000
1#
b10011100101 R
b1001110010 S
1$
#4275000
0&
#4281250
1&
#4287500
0&
#4293750
1&
#4300000
0&
#4306250
1&
#4312500
0&
#4318750
1&
#4320000
0#
#4325000
0&
#4331250
1&
#4337500
0&
#4343750
1&
#4350000
0&
#4356250
1&
#4362500
0&
#4368750
1&
#4370000
1#
b1001110010 R
b100111001 S
0$
#4375000
0&
#4381250
1&
#4387500
0&
#4393750
1&
#4400000
0&
#4406250
1&
#4412500
0&
#4418750
1&
#4420000
0#
#4425000
0&
#4431250
1&
#4437500
0&
#4443750
1&
#4450000
0&
#4456250
1&
#4462500
0&
#4468750
1&
#4470000
1#
b100111001 R
b10011100 S
1$
#4475000
0&
#4481250
1&
#4487500
0&
#4493750
1&
#4500000
0&
#4506250
1&
#4512500
0&
#4518750
1&
#4520000
0#
#4525000
0&
#4531250
1&
#4537500
0&
#4543750
1&
#4550000
0&
#4556250
1&
#4562500
0&
#4568750
1&
#4570000
1#
b10011100 R
b1001110 S
0$
#4575000
0&
#4581250
1&
#4587500
0&
#4593750
1&
#4600000
0&
#4606250
1&
#4612500
0&
#4618750
1&
#4620000
0#
#4625000
0&
#4631250
1&
#4637500
0&
#4643750
1&
#4650000
0&
#4656250
1&
#4662500
0&
#4668750
1&
#4670000
1#
b1001110 R
b100111 S
#4675000
0&
#4681250
1&
#4687500
0&
#4693750
1&
#4700000
0&
#4706250
1&
#4712500
0&
#4718750
1&
#4720000
0#
#4725000
0&
#4731250
1&
#4737500
0&
#4743750
1&
#4750000
0&
#4756250
1&
#4762500
0&
#4768750
1&
#4770000
1#
b100111 R
b10011 S
1$
#4775000
0&
#4781250
1&
#4787500
0&
#4793750
1&
#4800000
0&
#4806250
1&
#4812500
0&
#4818750
1&
#4820000
0#
#4825000
0&
#4831250
1&
#4837500
0&
#4843750
1&
#4850000
0&
#4856250
1&
#4862500
0&
#4868750
1&
#4870000
1#
b10011 R
b1001 S
#4875000
0&
#4881250
1&
#4887500
0&
#4893750
1&
#4900000
0&
#4906250
1&
#4912500
0&
#4918750
1&
#4920000
0#
#4925000
0&
#4931250
1&
#4937500
0&
#4943750
1&
#4950000
0&
#4956250
1&
#4962500
0&
#4968750
1&
#4970000
1#
b1001 R
b100 S
#4975000
0&
#4981250
1&
#4987500
0&
#4993750
1&
#5000000
0&
#5006250
1&
#5012500
0&
#5018750
1&
#5020000
0#
#5025000
0&
#5031250
1&
#5037500
0&
#5043750
1&
#5050000
0&
#5056250
1&
#5062500
0&
#5068750
1&
#5070000
1#
b100 R
b10 S
0$
#5075000
0&
#5081250
1&
#5087500
0&
#5093750
1&
#5100000
0&
#5106250
1&
#5112500
0&
#5118750
1&
#5120000
0#
#5125000
0&
#5131250
1&
#5137500
0&
#5143750
1&
#5150000
0&
#5156250
1&
#5162500
0&
#5168750
1&
#5170000
1#
b10 R
b1 S
#5175000
0&
#5181250
1&
#5187500
0&
#5193750
1&
#5200000
0&
#5206250
1&
#5212500
0&
#5218750
1&
#5220000
0#
#5225000
0&
#5231250
1&
#5237500
0&
#5243750
1&
#5250000
0&
#5256250
1&
#5262500
0&
#5268750
1&
#5270000
1#
b1 R
b0 S
1$
#5275000
0&
#5281250
1&
#5287500
0&
#5293750
1&
#5300000
0&
#5306250
1&
#5312500
0&
#5318750
1&
#5320000
0#
#5325000
0&
#5331250
1&
#5337500
0&
#5343750
1&
#5350000
0&
#5356250
1&
#5362500
0&
#5368750
1&
#5370000
1#
b0 R
0$
#5375000
0&
#5381250
1&
#5387500
0&
#5393750
1&
#5400000
0&
#5406250
1&
#5412500
0&
#5418750
1&
#5420000
0#
#5425000
0&
#5431250
1&
#5437500
0&
#5443750
1&
#5450000
0&
#5456250
1&
#5462500
0&
#5468750
1&
#5470000
1#
#5475000
0&
#5481250
1&
#5487500
0&
#5493750
1&
#5500000
0&
#5506250
1&
#5512500
0&
#5518750
1&
#5520000
1"
0#
b101 Y
#5525000
0&
#5531250
1&
#5537500
0&
#5543750
1&
#5550000
0&
#5556250
1&
#5562500
0&
#5568750
1&
#5570000
1#
b101 X
b1000 Y
#5575000
0&
#5581250
1&
#5587500
0&
#5593750
1&
#5600000
0&
#5606250
1&
#5612500
0&
#5618750
1&
#5620000
0#
#5625000
0&
#5631250
1&
#5637500
0&
#5643750
1&
#5650000
0&
#5656250
1&
#5662500
0&
#5668750
1&
#5670000
1#
b1000 X
b10 Y
#5675000
0&
#5681250
1&
#5687500
0&
#5693750
1&
#5700000
0&
#5706250
1&
#5712500
0&
#5718750
1&
#5720000
0"
0#
b1000 Y
b1 Y
#5725000
0&
#5731250
1&
#5737500
0&
#5743750
1&
#5750000
0&
#5756250
1&
#5762500
0&
#5768750
1&
#5770000
1#
b1 X
#5775000
0&
#5781250
1&
#5787500
0&
#5793750
1&
#5800000
0&
#5806250
1&
#5812500
0&
#5818750
1&
#5820000
0#
#5825000
0&
#5831250
1&
#5837500
0&
#5843750
1&
#5850000
0&
#5856250
1&
#5862500
0&
#5868750
1&
#5870000
1#
#5875000
0&
#5881250
1&
#5887500
0&
#5893750
1&
#5900000
0&
#5906250
1&
#5912500
0&
#5918750
1&
#5920000
1"
0#
b10 Y
#5925000
0&
#5931250
1&
#5937500
0&
#5943750
1&
#5950000
0&
#5956250
1&
#5962500
0&
#5968750
1&
#5970000
1#
b10 X
b1001 Y
#5975000
0&
#5981250
1&
#5987500
0&
#5993750
1&
#6000000
0&
#6006250
1&
#6012500
0&
#6018750
1&
#6020000
0"
0#
b10 Y
b11 Y
#6025000
0&
#6031250
1&
#6037500
0&
#6043750
1&
#6050000
0&
#6056250
1&
#6062500
0&
#6068750
1&
#6070000
1#
b11 X
b1001110010100110101011101000011 S
b100 Y
#6075000
0&
#6081250
1&
#6087500
0&
#6093750
1&
#6100000
0&
#6106250
1&
#6112500
0&
#6118750
1&
#6120000
0#
#6125000
0&
#6131250
1&
#6137500
0&
#6143750
1&
#6150000
0&
#6156250
1&
#6162500
0&
#6168750
1&
#6170000
1#
b100 X
b1001110010100110101011101000011 R
b100111001010011010101110100001 S
1$
#6175000
0&
#6181250
1&
#6187500
0&
#6193750
1&
#6200000
0&
#6206250
1&
#6212500
0&
#6218750
1&
#6220000
0#
#6225000
0&
#6231250
1&
#6237500
0&
#6243750
1&
#6250000
0&
#6256250
1&
#6262500
0&
#6268750
1&
#6270000
1#
b100111001010011010101110100001 R
b10011100101001101010111010000 S
#6275000
0&
#6281250
1&
#6287500
0&
#6293750
1&
#6300000
0&
#6306250
1&
#6312500
0&
#6318750
1&
#6320000
0#
#6325000
0&
#6331250
1&
#6337500
0&
#6343750
1&
#6350000
0&
#6356250
1&
#6362500
0&
#6368750
1&
#6370000
1#
b10011100101001101010111010000 R
b1001110010100110101011101000 S
0$
#6375000
0&
#6381250
1&
#6387500
0&
#6393750
1&
#6400000
0&
#6406250
1&
#6412500
0&
#6418750
1&
#6420000
0#
#6425000
0&
#6431250
1&
#6437500
0&
#6443750
1&
#6450000
0&
#6456250
1&
#6462500
0&
#6468750
1&
#6470000
1#
b1001110010100110101011101000 R
b100111001010011010101110100 S
#6475000
0&
#6481250
1&
#6487500
0&
#6493750
1&
#6500000
0&
#6506250
1&
#6512500
0&
#6518750
1&
#6520000
0#
#6525000
0&
#6531250
1&
#6537500
0&
#6543750
1&
#6550000
0&
#6556250
1&
#6562500
0&
#6568750
1&
#6570000
1#
b100111001010011010101110100 R
b10011100101001101010111010 S
#6575000
0&
#6581250
1&
#6587500
0&
#6593750
1&
#6600000
0&
#6606250
1&
#6612500
0&
#6618750
1&
#6620000
0#
#6625000
0&
#6631250
1&
#6637500
0&
#6643750
1&
#6650000
0&
#6656250
1&
#6662500
0&
#6668750
1&
#6670000
1#
b10011100101001101010111010 R
b1001110010100110101011101 S
#6675000
0&
#6681250
1&
#6687500
0&
#6693750
1&
#6700000
0&
#6706250
1&
#6712500
0&
#6718750
1&
#6720000
0#
#6725000
0&
#6731250
1&
#6737500
0&
#6743750
1&
#6750000
0&
#6756250
1&
#6762500
0&
#6768750
1&
#6770000
1#
b1001110010100110101011101 R
b100111001010011010101110 S
1$
#6775000
0&
#6781250
1&
#6787500
0&
#6793750
1&
#6800000
0&
#6806250
1&
#6812500
0&
#6818750
1&
#6820000
0#
#6825000
0&
#6831250
1&
#6837500
0&
#6843750
1&
#6850000
0&
#6856250
1&
#6862500
0&
#6868750
1&
#6870000
1#
b100111001010011010101110 R
b10011100101001101010111 S
0$
#6875000
0&
#6881250
1&
#6887500
0&
#6893750
1&
#6900000
0&
#6906250
1&
#6912500
0&
#6918750
1&
#6920000
0#
#6925000
0&
#6931250
1&
#6937500
0&
#6943750
1&
#6950000
0&
#6956250
1&
#6962500
0&
#6968750
1&
#6970000
1#
b10011100101001101010111 R
b1001110010100110101011 S
1$
#6975000
0&
#6981250
1&
#6987500
0&
#6993750
1&
#7000000
0&
#7006250
1&
#7012500
0&
#7018750
1&
#7020000
0#
#7025000
0&
#7031250
1&
#7037500
0&
#7043750
1&
#7050000
0&
#7056250
1&
#7062500
0&
#7068750
1&
#7070000
1#
b1001110010100110101011 R
b100111001010011010101 S
#7075000
0&
#7081250
1&
#7087500
0&
#7093750
1&
#7100000
0&
#7106250
1&
#7112500
0&
#7118750
1&
#7120000
0#
#7125000
0&
#7131250
1&
#7137500
0&
#7143750
1&
#7150000
0&
#7156250
1&
#7162500
0&
#7168750
1&
#7170000
1#
b100111001010011010101 R
b10011100101001101010 S
#7175000
0&
#7181250
1&
#7187500
0&
#7193750
1&
#7200000
0&
#7206250
1&
#7212500
0&
#7218750
1&
#7220000
0#
#7225000
0&
#7231250
1&
#7237500
0&
#7243750
1&
#7250000
0&
#7256250
1&
#7262500
0&
#7268750
1&
#7270000
1#
b10011100101001101010 R
b1001110010100110101 S
0$
#7275000
0&
#7281250
1&
#7287500
0&
#7293750
1&
#7300000
0&
#7306250
1&
#7312500
0&
#7318750
1&
#7320000
0#
#7325000
0&
#7331250
1&
#7337500
0&
#7343750
1&
#7350000
0&
#7356250
1&
#7362500
0&
#7368750
1&
#7370000
1#
b1001110010100110101 R
b100111001010011010 S
1$
#7375000
0&
#7381250
1&
#7387500
0&
#7393750
1&
#7400000
0&
#7406250
1&
#7412500
0&
#7418750
1&
#7420000
0#
#7425000
0&
#7431250
1&
#7437500
0&
#7443750
1&
#7450000
0&
#7456250
1&
#7462500
0&
#7468750
1&
#7470000
1#
b100111001010011010 R
b10011100101001101 S
0$
#7475000
0&
#7481250
1&
#7487500
0&
#7493750
1&
#7500000
0&
#7506250
1&
#7512500
0&
#7518750
1&
#7520000
0#
#7525000
0&
#7531250
1&
#7537500
0&
#7543750
1&
#7550000
0&
#7556250
1&
#7562500
0&
#7568750
1&
#7570000
1#
b10011100101001101 R
b1001110010100110 S
1$
#7575000
0&
#7581250
1&
#7587500
0&
#7593750
1&
#7600000
0&
#7606250
1&
#7612500
0&
#7618750
1&
#7620000
0#
#7625000
0&
#7631250
1&
#7637500
0&
#7643750
1&
#7650000
0&
#7656250
1&
#7662500
0&
#7668750
1&
#7670000
1#
b1001110010100110 R
b100111001010011 S
0$
#7675000
0&
#7681250
1&
#7687500
0&
#7693750
1&
#7700000
0&
#7706250
1&
#7712500
0&
#7718750
1&
#7720000
0#
#7725000
0&
#7731250
1&
#7737500
0&
#7743750
1&
#7750000
0&
#7756250
1&
#7762500
0&
#7768750
1&
#7770000
1#
b100111001010011 R
b10011100101001 S
1$
#7775000
0&
#7781250
1&
#7787500
0&
#7793750
1&
#7800000
0&
#7806250
1&
#7812500
0&
#7818750
1&
#7820000
0#
#7825000
0&
#7831250
1&
#7837500
0&
#7843750
1&
#7850000
0&
#7856250
1&
#7862500
0&
#7868750
1&
#7870000
1#
b10011100101001 R
b1001110010100 S
#7875000
0&
#7881250
1&
#7887500
0&
#7893750
1&
#7900000
0&
